<?xml version="1.0" encoding="UTF-8"?>
<session version="1.0">
<refactoring accessors="true" comment="Delete element from project &apos;automacao-01&apos;&#x0D;&#x0A;- Original project: &apos;automacao-01&apos;&#x0D;&#x0A;- Original element: &apos;org.openqa.selenium.chrome.ChromeDriver01.java&apos;" description="Delete element" element1="/src\/test\/java=/optional=/true=/=/maven.pomderived=/true=/=/test=/true=/&lt;org.openqa.selenium.chrome{ChromeDriver01.java" elements="1" flags="589830" id="org.eclipse.jdt.ui.delete" resources="0" stamp="1655307286004" subPackages="false" version="1.0"/>
</session>