<?xml version="1.0" encoding="UTF-8"?>
<session version="1.0">
<refactoring comment="Delete resource &apos;prova-tecnica-api-master&apos;" deleteContents="false" description="Delete resource &apos;prova-tecnica-api-master&apos;" element1="/prova-tecnica-api-master" flags="7" id="org.eclipse.ltk.core.refactoring.delete.resources" resources="1" stamp="1658422503586"/>
</session>